# 
# Generated by Sweet Home 3D - vie jul 10 21:13:43 COT 2020
# http://www.sweethome3d.com/
# 
mtllib luz_afuera.mtl
g ground_1
usemtl ground_1
v 246.7644 0.0 99.00928
v 246.7644 0.0 253.00928
v 320.7644 0.0 253.00928
v 320.7644 0.0 99.00928
vn 0.0 1.0 0.0
vn 0.0 0.0 0.0
f 1//1 2//1 3//1
f 1//1 3//1 4//1
g 1_2
usemtl glass
v 283.7644 845.2472 223.35426
v 288.02505 845.2472 223.87639
v 291.63705 849.8625 218.5039
v 283.7644 849.8625 217.53912
v 283.7644 856.76984 213.65356
v 294.05054 856.76984 214.91415
v 294.898 864.91754 213.65356
v 283.76443 864.91754 212.28918
v 283.7644 843.6266 230.21365
v 291.63705 845.2472 225.3633
v 298.31116 849.8625 221.25142
v 302.77066 856.76984 218.5039
v 304.33664 864.91754 217.53912
v 294.0505 845.2472 227.58867
v 302.77066 849.8625 225.3633
v 308.5973 856.76984 223.87639
v 310.64334 864.91754 223.35426
v 304.33664 849.8625 230.21365
v 310.6433 856.76984 230.21365
v 294.898 845.2472 230.21365
v 312.85794 864.91754 230.21365
v 294.0505 845.2472 232.83864
v 302.77066 849.8625 235.064
v 308.5973 856.76984 236.55092
v 310.6433 864.91754 237.07304
v 302.77066 856.76984 241.92339
v 304.33664 864.91754 242.88818
v 291.63705 845.2472 235.064
v 298.31116 849.8625 239.17589
v 288.02505 845.2472 236.55092
v 291.63705 849.8625 241.92339
v 294.0505 856.76984 245.51315
v 294.898 864.91754 246.77374
v 283.7644 845.2472 237.07304
v 283.7644 849.8625 242.88818
v 283.7644 856.76984 246.77374
v 283.7644 864.91754 248.13812
v 279.50375 845.2472 236.55092
v 275.89175 849.8625 241.92339
v 273.47827 856.76984 245.51315
v 272.63077 864.91754 246.77374
v 275.89175 845.2472 235.064
v 269.21762 849.8625 239.17589
v 264.75812 856.76984 241.92339
v 263.19217 864.91754 242.88818
v 273.47827 845.2472 232.83864
v 264.75815 849.8625 235.064
v 258.93152 856.76984 236.55092
v 256.88547 864.91754 237.07304
v 272.6308 845.2472 230.21365
v 263.19217 849.8625 230.21365
v 256.88547 856.76984 230.21365
v 254.67087 864.91754 230.21365
v 273.4783 845.2472 227.58867
v 264.75815 849.8625 225.3633
v 258.93152 856.76984 223.87639
v 256.8855 864.91754 223.35426
v 275.89175 845.2472 225.3633
v 269.21765 849.8625 221.25142
v 264.75815 856.76984 218.5039
v 263.19217 864.91754 217.53912
v 275.89175 849.8625 218.5039
v 273.4783 856.76984 214.91415
v 279.50375 845.2472 223.87639
v 272.6308 864.91754 213.65356
vn 0.0 0.9376152 0.3476748
vn -0.21281908 0.9243581 0.31665447
vn -0.38830727 0.718113 0.5775216
vn 0.0 0.7542703 0.65656394
vn 0.0 0.4323316 0.9017147
vn -0.51237774 0.3955711 0.7622286
vn -0.54576516 0.20762639 0.81180763
vn 0.0 0.22994743 0.97320306
vn -0.38063526 0.8944956 0.23450863
vn -0.64801806 0.6485969 0.3992426
vn -0.80216205 0.33510026 0.4942104
vn -0.83860207 0.1726493 0.51666105
vn -0.48226568 0.86734277 0.123029955
vn -0.77802426 0.5960291 0.19856378
vn -0.9255553 0.2959317 0.23616035
vn -0.9578494 0.15093029 0.24442714
vn -0.81623644 0.57771784 0.0
vn -0.95903414 0.28329033 0.0
vn -0.51566994 0.8567873 0.0
vn -0.98957 0.1440527 0.0
vn -0.48226568 0.86734277 -0.123029955
vn -0.77802426 0.5960291 -0.19856378
vn -0.9255553 0.2959317 -0.23616035
vn -0.9578494 0.15093029 -0.24442714
vn -0.80216205 0.33510026 -0.4942104
vn -0.83860207 0.1726493 -0.51666105
vn -0.38063526 0.8944956 -0.23450863
vn -0.64801806 0.6485969 -0.3992426
vn -0.21281908 0.9243581 -0.31665447
vn -0.38830727 0.718113 -0.5775216
vn -0.51237774 0.3955711 -0.7622286
vn -0.54576516 0.20762639 -0.81180763
vn 0.0 0.93760276 -0.34770817
vn 0.0 0.7542703 -0.65656394
vn 0.0 0.4323316 -0.9017147
vn 0.0 0.22994743 -0.97320306
vn 0.21283895 0.9243434 -0.31668404
vn 0.38830727 0.718113 -0.5775216
vn 0.51237774 0.3955711 -0.7622286
vn 0.54576516 0.20762639 -0.81180763
vn 0.38063526 0.8944956 -0.23450863
vn 0.64801806 0.6485969 -0.3992426
vn 0.80216205 0.33510026 -0.4942104
vn 0.83860207 0.1726493 -0.51666105
vn 0.48226568 0.86734277 -0.123029955
vn 0.77802426 0.5960291 -0.19856378
vn 0.9255553 0.2959317 -0.23616035
vn 0.9578494 0.15093029 -0.24442714
vn 0.51566994 0.8567873 0.0
vn 0.81623644 0.57771784 0.0
vn 0.95903414 0.28329033 0.0
vn 0.98957 0.1440527 0.0
vn 0.48226568 0.86734277 0.123029955
vn 0.77802426 0.5960291 0.19856378
vn 0.9255553 0.2959317 0.23616035
vn 0.9578494 0.15093029 0.24442714
vn 0.38063526 0.8944956 0.23450863
vn 0.64801806 0.6485969 0.3992426
vn 0.80216205 0.33510026 0.4942104
vn 0.83860207 0.1726493 0.51666105
vn 0.38830727 0.718113 0.5775216
vn 0.51237774 0.3955711 0.7622286
vn 0.21281908 0.9243581 0.31665447
vn 0.54576516 0.20762639 0.81180763
f 5//3 6//4 7//5
f 5//3 7//5 8//6
f 9//7 10//8 11//9
f 9//7 11//9 12//10
f 13//1 6//4 5//3
f 8//6 7//5 10//8
f 8//6 10//8 9//7
f 6//4 14//11 15//12
f 6//4 15//12 7//5
f 10//8 16//13 17//14
f 10//8 17//14 11//9
f 13//1 14//11 6//4
f 7//5 15//12 16//13
f 7//5 16//13 10//8
f 13//1 18//15 14//11
f 15//12 19//16 20//17
f 15//12 20//17 16//13
f 14//11 18//15 19//16
f 14//11 19//16 15//12
f 16//13 20//17 21//18
f 16//13 21//18 17//14
f 19//16 22//19 23//20
f 19//16 23//20 20//17
f 18//15 24//21 22//19
f 18//15 22//19 19//16
f 20//17 23//20 25//22
f 20//17 25//22 21//18
f 13//1 24//21 18//15
f 24//21 26//23 27//24
f 24//21 27//24 22//19
f 23//20 28//25 29//26
f 23//20 29//26 25//22
f 13//1 26//23 24//21
f 22//19 27//24 28//25
f 22//19 28//25 23//20
f 28//25 30//27 31//28
f 28//25 31//28 29//26
f 13//1 32//29 26//23
f 27//24 33//30 30//27
f 27//24 30//27 28//25
f 26//23 32//29 33//30
f 26//23 33//30 27//24
f 13//1 34//31 32//29
f 33//30 35//32 36//33
f 33//30 36//33 30//27
f 32//29 34//31 35//32
f 32//29 35//32 33//30
f 30//27 36//33 37//34
f 30//27 37//34 31//28
f 34//31 38//35 39//36
f 34//31 39//36 35//32
f 36//33 40//37 41//38
f 36//33 41//38 37//34
f 13//1 38//35 34//31
f 35//32 39//36 40//37
f 35//32 40//37 36//33
f 38//35 42//39 43//40
f 38//35 43//40 39//36
f 40//37 44//41 45//42
f 40//37 45//42 41//38
f 13//1 42//39 38//35
f 39//36 43//40 44//41
f 39//36 44//41 40//37
f 13//1 46//43 42//39
f 43//40 47//44 48//45
f 43//40 48//45 44//41
f 42//39 46//43 47//44
f 42//39 47//44 43//40
f 44//41 48//45 49//46
f 44//41 49//46 45//42
f 13//1 50//47 46//43
f 47//44 51//48 52//49
f 47//44 52//49 48//45
f 46//43 50//47 51//48
f 46//43 51//48 47//44
f 48//45 52//49 53//50
f 48//45 53//50 49//46
f 50//47 54//51 55//52
f 50//47 55//52 51//48
f 52//49 56//53 57//54
f 52//49 57//54 53//50
f 13//1 54//51 50//47
f 51//48 55//52 56//53
f 51//48 56//53 52//49
f 54//51 58//55 59//56
f 54//51 59//56 55//52
f 56//53 60//57 61//58
f 56//53 61//58 57//54
f 13//1 58//55 54//51
f 55//52 59//56 60//57
f 55//52 60//57 56//53
f 13//1 62//59 58//55
f 59//56 63//60 64//61
f 59//56 64//61 60//57
f 58//55 62//59 63//60
f 58//55 63//60 59//56
f 60//57 64//61 65//62
f 60//57 65//62 61//58
f 63//60 66//63 67//64
f 63//60 67//64 64//61
f 62//59 68//65 66//63
f 62//59 66//63 63//60
f 64//61 67//64 69//66
f 64//61 69//66 65//62
f 13//1 68//65 62//59
f 68//65 5//3 8//6
f 68//65 8//6 66//63
f 67//64 9//7 12//10
f 67//64 12//10 69//66
f 13//1 5//3 68//65
f 66//63 8//6 9//7
f 66//63 9//7 67//64
g base_Circle_2_3
usemtl iron
v 296.4215 0.0 110.67211
v 296.01883 42.097954 110.56935
v 293.1455 42.097954 113.21871
v 293.4537 0.0 113.4086
v 270.0819 0.0 107.44421
v 270.51776 42.097954 107.44421
v 271.52676 42.097954 104.31906
v 271.12405 0.0 104.21629
v 297.46368 0.0 107.44421
v 297.0278 42.097954 107.44421
v 271.12405 0.0 110.67211
v 271.52676 42.097954 110.56934
v 296.4215 0.0 104.21629
v 296.01883 42.097954 104.31906
v 274.09186 0.0 113.4086
v 274.4001 42.097954 113.21871
v 293.4537 0.0 101.479805
v 293.1455 42.097954 101.66969
v 278.5335 0.0 115.23706
v 278.70032 42.097954 114.98896
v 289.01205 0.0 99.651344
v 288.84525 42.097954 99.899445
v 283.7728 0.0 115.879135
v 283.7728 42.097954 115.610596
v 278.5335 0.0 99.65135
v 278.70032 42.097954 99.899445
v 283.7728 42.097954 99.27782
v 283.7728 0.0 99.00928
v 289.01205 0.0 115.23706
v 288.84525 42.097954 114.98897
v 274.09186 0.0 101.47981
v 274.4001 42.097954 101.66969
v 292.24844 42.184803 112.66604
v 288.35977 42.184803 114.26686
v 272.6988 42.184803 104.618164
v 275.29712 42.184803 102.22237
v 294.84677 42.184803 110.27024
v 271.7864 42.184803 107.44421
v 295.7592 42.184803 107.44421
v 272.6988 42.184803 110.27024
v 294.84677 42.184803 104.618164
v 275.29712 42.184803 112.66604
v 292.24844 42.184803 102.22237
v 279.1858 42.184803 114.26686
v 288.35977 42.184803 100.621544
v 283.7728 42.184803 114.828995
v 279.1858 42.184803 100.621544
v 283.7728 42.184803 100.05941
v 285.59412 921.0226 104.73516
v 287.13818 921.0226 105.37079
v 283.7728 921.0226 110.37646
v 281.95145 921.0226 110.15325
v 281.95145 921.0226 104.73516
v 283.7728 921.0226 104.511955
v 285.59412 921.0226 110.15325
v 280.40738 921.0226 105.37079
v 287.13818 921.0226 109.51762
v 279.37567 921.0226 106.32208
v 288.1699 921.0226 108.56633
v 279.0134 921.0226 107.44421
v 288.53217 921.0226 107.44421
v 279.37567 921.0226 108.56633
v 288.1699 921.0226 106.32208
v 280.40738 921.0226 109.51762
v 277.52014 921.70337 109.039856
v 277.00497 921.70337 107.44421
v 290.02542 921.70337 105.84856
v 290.5406 921.70337 107.44421
v 278.9872 921.70337 110.39258
v 288.55835 921.70337 104.49583
v 281.18286 921.70337 111.29644
v 286.3627 921.70337 103.591965
v 283.7728 921.70337 111.61384
v 281.18286 921.70337 103.591965
v 283.7728 921.70337 103.27457
v 286.3627 921.70337 111.29645
v 278.9872 921.70337 104.49583
v 288.55835 921.70337 110.392586
v 277.52014 921.70337 105.84856
v 290.02542 921.70337 109.039856
v 288.55835 922.96185 110.392586
v 286.3627 922.96185 111.29645
v 277.52014 922.96185 105.84856
v 278.9872 922.96185 104.49583
v 290.02542 922.96185 109.039856
v 277.00497 922.96185 107.44421
v 290.5406 922.96185 107.44421
v 277.52014 922.96185 109.039856
v 290.02542 922.96185 105.84856
v 278.9872 922.96185 110.39258
v 288.55835 922.96185 104.49583
v 281.18286 922.96185 111.29644
v 286.3627 922.96185 103.591965
v 283.7728 922.96185 111.61384
v 281.18286 922.96185 103.591965
v 283.7728 922.96185 103.27457
v 284.83902 923.2901 105.8583
v 285.74292 923.2901 106.23041
v 283.7728 923.2901 109.160774
v 282.70654 923.2901 109.030106
v 282.70654 923.2901 105.8583
v 283.7728 923.2901 105.72763
v 284.83902 923.2901 109.030106
v 281.80264 923.2901 106.23041
v 285.74292 923.2901 108.658005
v 281.19867 923.2901 106.7873
v 286.3469 923.2901 108.101105
v 280.9866 923.2901 107.44421
v 286.559 923.2901 107.44421
v 281.19867 923.2901 108.101105
v 286.3469 923.2901 106.7873
v 281.80264 923.2901 108.658005
v 286.3469 928.85095 106.7873
v 286.559 928.85095 107.44421
v 281.80264 928.85095 108.658005
v 281.19867 928.85095 108.101105
v 285.74292 928.85095 106.23041
v 282.70654 928.85095 109.030106
v 284.83902 928.85095 105.8583
v 283.7728 928.85095 109.160774
v 282.70654 928.85095 105.8583
v 283.7728 928.85095 105.72763
v 284.83902 928.85095 109.030106
v 281.80264 928.85095 106.23041
v 285.74292 928.85095 108.658005
v 281.19867 928.85095 106.7873
v 286.3469 928.85095 108.101105
v 280.9866 928.85095 107.44421
v 282.48685 930.0 107.116035
v 282.78857 930.0 106.83783
v 285.05875 930.0 107.77238
v 284.75702 930.0 108.05058
v 282.3809 930.0 107.44421
v 285.1647 930.0 107.44421
v 282.48685 930.0 107.77238
v 285.05875 930.0 107.116035
v 282.78857 930.0 108.05058
v 284.75702 930.0 106.83783
v 283.2401 930.0 108.23647
v 284.30545 930.0 106.65193
v 283.7728 930.0 108.30175
v 283.2401 930.0 106.65193
v 283.7728 930.0 106.586655
v 284.30545 930.0 108.23647
v 280.41672 857.7082 111.957985
v 287.12888 857.7082 111.957985
v 287.12888 896.5766 111.957985
v 280.41672 896.5766 111.957985
v 287.12888 896.5766 108.8997
v 280.41672 896.5766 108.8997
v 280.41672 857.7082 108.8997
v 287.12888 857.7082 108.8997
v 282.648 874.5607 111.957985
v 282.648 877.7363 131.21979
v 282.648 887.0827 129.55511
v 282.648 886.6127 111.957985
v 284.88077 886.6127 111.957985
v 285.75146 886.6127 111.957985
v 285.75146 887.0827 129.55511
v 284.88077 887.0827 129.55511
v 284.88077 874.5607 111.957985
v 284.88077 877.7363 131.21979
v 281.77734 887.0827 129.55511
v 281.77734 886.6127 111.957985
v 281.77734 890.8174 111.957985
v 281.77734 891.2012 128.88966
v 285.75146 891.2012 128.88966
v 285.75146 890.8174 111.957985
v 286.64844 888.7151 111.957985
v 286.64844 889.142 129.2224
v 280.88034 888.7151 111.957985
v 280.88034 889.142 129.2224
v 280.88034 892.8976 146.63379
v 281.77734 894.79456 146.30766
v 285.75146 894.79456 146.30766
v 282.648 886.52203 147.79408
v 282.648 891.0006 146.9599
v 286.64844 892.8976 146.63379
v 284.88077 886.52203 147.79408
v 281.77734 891.0006 146.9599
v 284.88077 891.0006 146.9599
v 285.75146 891.0006 146.9599
v 284.88077 900.5674 163.67337
v 285.75146 904.31287 162.55286
v 286.64844 902.4401 163.11311
v 280.88034 902.4401 163.11311
v 281.77734 904.31287 162.55286
v 282.648 900.5674 163.67337
v 285.75146 900.5674 163.67337
v 281.77734 900.5674 163.67337
v 282.648 908.80896 182.35783
v 281.77734 908.80896 182.35783
v 285.75146 912.74426 181.63466
v 286.64844 910.77673 181.99625
v 280.88034 910.77673 181.99625
v 281.77734 912.74426 181.63466
v 285.75146 908.80896 182.35783
v 284.88077 908.80896 182.35783
v 285.75146 909.41016 203.99141
v 281.77734 913.62915 203.77022
v 285.75146 913.62915 203.77022
v 281.77734 909.41016 203.99141
v 286.64844 911.51965 203.88083
v 280.88034 911.51965 203.88083
v 285.75146 906.9176 229.16165
v 281.77734 906.9176 229.16165
v 285.75146 911.1614 229.93364
v 286.64844 909.0395 229.54764
v 280.88034 909.0395 229.54764
v 281.77734 911.1614 229.93364
v 283.18866 860.0126 111.78717
v 283.18866 860.0126 113.0117
v 282.82764 860.82587 113.0117
v 282.82764 860.82587 111.78717
v 283.7728 894.6758 111.78717
v 283.7728 894.6758 113.0117
v 284.71793 894.1732 113.0117
v 284.71793 894.1732 111.78717
v 284.3569 860.0126 113.0117
v 284.71793 860.82587 113.0117
v 283.7728 861.32837 113.0117
v 284.3569 893.36005 113.0117
v 284.3569 893.36005 111.78717
v 284.3569 860.0126 111.78717
v 283.18866 893.36005 113.0117
v 283.18866 893.36005 111.78717
v 282.82764 894.1732 113.0117
v 284.71793 860.82587 111.78717
v 282.82764 894.1732 111.78717
v 283.7728 861.32837 111.78717
v 279.47028 911.7835 230.26495
v 288.05853 911.7835 230.26495
v 288.05853 910.4825 227.2559
v 279.47028 910.4825 227.2559
v 288.05853 907.18854 225.65482
v 279.47028 907.18854 225.65482
v 288.05853 903.4428 226.21088
v 279.47028 903.4428 226.21086
v 288.05853 900.9979 228.66388
v 279.47028 900.9979 228.66388
v 288.05853 900.9979 231.86606
v 279.47028 900.9979 231.86606
v 288.05853 903.4428 234.31908
v 279.47028 903.4428 234.31906
v 288.05853 907.18854 234.8751
v 279.47028 907.18854 234.8751
v 288.05853 910.4825 233.27403
v 279.47028 910.4825 233.27403
v 284.948 896.37213 230.94287
v 284.40497 896.37213 231.16641
v 286.97763 895.5586 234.99295
v 289.70166 895.5586 233.8716
v 283.12384 896.37213 229.2609
v 283.7644 896.37213 229.18239
v 283.7644 895.5586 225.04057
v 280.55118 895.5586 225.43437
v 283.7644 896.37213 228.28696
v 283.7644 901.43243 228.28696
v 287.05258 901.43243 229.75882
v 287.05258 896.37213 229.75882
v 282.5808 896.37213 229.48442
v 277.82715 895.5586 226.55571
v 285.31085 896.37213 229.819
v 285.43826 896.37213 230.21365
v 292.16095 895.5586 230.21365
v 291.5218 895.5586 228.23398
v 285.79663 901.43243 232.14037
v 285.79663 896.37213 232.14037
v 284.948 896.37213 229.48442
v 289.70166 895.5586 226.55571
v 282.0905 896.37213 230.21365
v 282.21796 896.37213 229.819
v 276.00702 895.5586 228.23398
v 275.36786 895.5586 230.21365
v 281.73218 901.43243 232.14037
v 281.73218 896.37213 232.14037
v 282.5808 896.37213 230.94287
v 282.21796 896.37213 230.6083
v 276.00702 895.5586 232.19331
v 277.82715 895.5586 233.8716
v 285.31085 896.37213 230.6083
v 291.5218 895.5586 232.19331
v 280.47623 901.43243 229.75882
v 280.47623 896.37213 229.75882
v 284.40497 896.37213 229.2609
v 286.9776 895.5586 225.43437
v 283.12384 896.37213 231.16641
v 280.55118 895.5586 234.99295
v 283.7644 896.37213 231.24493
v 283.7644 895.5586 235.38675
v 268.15414 893.4137 230.21365
v 269.3424 893.4137 233.89412
v 294.80252 893.4137 237.01425
v 298.1864 893.4137 233.89412
v 269.3424 893.4137 226.5332
v 299.37466 893.4137 230.21365
v 277.79062 893.4137 239.09898
v 283.7644 893.4137 239.8311
v 298.1864 893.4137 226.5332
v 272.7263 893.4137 223.41306
v 294.80252 893.4137 223.41306
v 272.7263 893.4137 237.01425
v 289.7382 893.4137 221.32834
v 277.79062 893.4137 221.32834
v 289.7382 893.4137 239.09898
v 283.7644 893.4137 220.5962
v 274.12238 887.94055 215.87225
v 265.9483 887.94055 219.23712
v 293.4064 887.94055 244.55505
v 301.5805 887.94055 241.19019
v 293.4064 887.94055 215.87225
v 283.7644 887.94055 214.69057
v 260.4865 887.94055 236.15413
v 265.9483 887.94055 241.19019
v 283.7644 887.94055 245.73674
v 258.5686 887.94055 230.21365
v 307.0423 887.94055 236.15413
v 260.4865 887.94055 224.27318
v 308.9602 887.94055 230.21365
v 274.12238 887.94055 244.55505
v 307.0423 887.94055 224.27318
v 301.5805 887.94055 219.23712
v 314.66537 880.5444 230.21365
v 312.31317 880.5444 222.92807
v 261.91412 880.5444 216.75166
v 255.21564 880.5444 222.92807
v 305.6147 880.5444 216.75166
v 261.91412 880.5444 243.67564
v 271.93912 880.5444 247.80243
v 295.5897 880.5444 212.62488
v 271.93912 880.5444 212.62488
v 295.5897 880.5444 247.80243
v 305.6147 880.5444 243.67564
v 283.7644 880.5444 211.17563
v 255.21564 880.5444 237.49925
v 283.7644 880.5444 249.25168
v 252.86343 880.5444 230.21365
v 312.31317 880.5444 237.49925
v 250.90253 873.0742 230.21365
v 253.40399 873.0742 237.96158
v 307.00125 873.0742 244.5299
v 314.12482 873.0742 237.96158
v 253.40399 873.0742 222.46573
v 316.62628 873.0742 230.21365
v 271.1887 873.0742 248.91856
v 283.7644 873.0742 250.4598
v 314.12482 873.0742 222.46573
v 260.52756 873.0742 215.89742
v 307.00125 873.0742 215.89742
v 260.52756 873.0742 244.5299
v 296.3401 873.0742 211.50874
v 271.1887 873.0742 211.50874
v 296.3401 873.0742 248.91856
v 283.7644 873.0742 209.96753
v 269.6051 873.0742 209.15334
v 257.60147 873.0742 214.09464
v 297.92368 873.0742 251.27399
v 309.92734 873.0742 246.33269
v 297.92368 873.0742 209.15334
v 283.7644 873.0742 207.41803
v 249.58086 873.0742 238.93724
v 257.60147 873.0742 246.33269
v 283.7644 873.0742 253.00928
v 246.7644 873.0742 230.21365
v 317.94794 873.0742 238.93724
v 249.58086 873.0742 221.49008
v 320.7644 873.0742 230.21365
v 269.6051 873.0742 251.27399
v 317.94794 873.0742 221.49008
v 309.92734 873.0742 214.09464
v 320.7644 864.91754 230.21365
v 317.94794 864.91754 221.49008
v 257.60147 864.91754 214.09464
v 249.58086 864.91754 221.49008
v 309.92734 864.91754 214.09464
v 257.60147 864.91754 246.33269
v 269.6051 864.91754 251.27399
v 297.92368 864.91754 209.15334
v 269.6051 864.91754 209.15334
v 297.92368 864.91754 251.27399
v 309.92734 864.91754 246.33269
v 283.7644 864.91754 207.41803
v 249.58086 864.91754 238.93724
v 283.7644 864.91754 253.00928
v 246.7644 864.91754 230.21365
v 317.94794 864.91754 238.93724
v 304.33664 864.91754 242.88823
v 310.64334 864.91754 237.0731
v 256.88547 864.91754 223.3542
v 272.63077 864.91754 246.77365
v 310.64334 864.91754 223.3542
v 263.19217 864.91754 217.53908
v 304.33664 864.91754 217.53908
v 263.19217 864.91754 242.88823
v 294.898 864.91754 213.65367
v 272.63077 864.91754 213.65367
v 294.898 864.91754 246.77365
v 283.7644 864.91754 212.28918
v 256.88547 864.91754 237.0731
vn 0.9689221 0.0058334107 0.24729717
vn 0.851368 0.0066965045 0.5245261
vn -0.99998456 0.0055616666 0.0
vn -0.9689221 0.0058334107 -0.24729717
vn 0.99998456 0.0055616666 0.0
vn -0.9689221 0.0058334107 0.24729717
vn 0.9689221 0.0058334107 -0.24729717
vn -0.851368 0.0066965045 0.5245261
vn 0.851368 0.0066965045 -0.5245261
vn -0.557974 0.008108998 0.8298188
vn 0.557974 0.008108998 -0.8298188
vn 0.0 0.0090270145 0.99995923
vn -0.557974 0.008108998 -0.8298188
vn 0.0 0.0090270145 -0.99995923
vn 0.557974 0.008108998 0.8298188
vn -0.851368 0.0066965045 -0.5245261
vn 0.0899426 0.99440414 0.055413455
vn 0.048675068 0.996184 0.07244441
vn -0.11717013 0.99266213 -0.02988259
vn -0.0899426 0.99440414 -0.055413455
vn 0.11717013 0.99266213 0.02988259
vn -0.12675051 0.9919346 0.0
vn 0.12675051 0.9919346 0.0
vn -0.11717013 0.99266213 0.02988259
vn 0.11717013 0.99266213 -0.02988259
vn -0.0899426 0.99440414 0.055413455
vn 0.0899426 0.99440414 -0.055413455
vn -0.048675068 0.996184 0.07244441
vn 0.048675068 0.996184 -0.07244441
vn 0.0 0.99691546 0.07848287
vn -0.048675068 0.996184 -0.07244441
vn 0.0 0.99691546 -0.07848287
vn 0.5579393 0.006401442 -0.82985705
vn 0.8513752 0.0052867583 -0.5245306
vn 0.0 0.0071267006 0.9999746
vn -0.5579393 0.006401442 0.82985705
vn -0.5579393 0.006401442 -0.82985705
vn 0.0 0.0071267006 -0.9999746
vn 0.5579393 0.006401442 0.82985705
vn -0.8513752 0.0052867583 -0.5245306
vn 0.8513752 0.0052867583 0.5245306
vn -0.9689347 0.0046048854 -0.24727361
vn 0.9689347 0.0046048854 0.24727361
vn -0.99999034 0.004390815 0.0
vn 0.99999034 0.004390815 0.0
vn -0.9689347 0.0046048854 0.24727361
vn 0.9689347 0.0046048854 -0.24727361
vn -0.8513752 0.0052867583 0.5245306
vn -0.5006486 -0.8561748 0.12773252
vn -0.8819368 -0.41419274 0.22501525
vn -0.91735595 -0.3980679 0.0
vn -0.5348149 -0.8449693 0.0
vn 0.5006486 -0.8561748 -0.12773252
vn 0.8819368 -0.41419274 -0.22501525
vn 0.91735595 -0.3980679 0.0
vn 0.5348149 -0.8449693 0.0
vn -0.39615768 -0.8851485 0.24407198
vn -0.7546053 -0.46306464 0.4649108
vn 0.39615768 -0.8851485 -0.24407198
vn 0.7546053 -0.46306464 -0.4649108
vn -0.22212775 -0.9173047 0.3304715
vn -0.47143242 -0.5346379 0.7013657
vn 0.22214836 -0.91728866 -0.33050212
vn 0.47143242 -0.5346379 -0.7013657
vn 0.0 -0.9316693 0.36330733
vn 0.0 -0.5758299 0.81756955
vn -0.22212775 -0.9173047 -0.3304715
vn -0.47146156 -0.534671 -0.7013208
vn 0.0 -0.5758299 -0.81756955
vn 0.0 -0.9316693 -0.36330733
vn 0.22212775 -0.9173047 0.3304715
vn 0.47143242 -0.5346379 0.7013657
vn -0.39615768 -0.8851485 -0.24407198
vn -0.7546053 -0.46306464 -0.4649108
vn 0.39615768 -0.8851485 0.24407198
vn 0.7546053 -0.46306464 0.4649108
vn -0.5006486 -0.8561748 -0.12773252
vn -0.8819368 -0.41419274 -0.22501525
vn 0.5006486 -0.8561748 0.12773252
vn 0.8819368 -0.41419274 0.22501525
vn 0.8513871 0.0 0.52453786
vn 0.55795074 0.0 0.8298741
vn -0.968945 0.0 -0.24727625
vn -0.8513871 0.0 -0.52453786
vn 0.968945 0.0 0.24727625
vn -0.99999994 0.0 0.0
vn 0.99999994 0.0 0.0
vn -0.968945 0.0 0.24727625
vn 0.968945 0.0 -0.24727625
vn -0.8513871 0.0 0.52453786
vn 0.8513871 0.0 -0.52453786
vn -0.55795074 0.0 0.8298741
vn 0.55795074 0.0 -0.8298741
vn 0.0 0.0 1.0
vn -0.55795074 0.0 -0.8298741
vn 0.0 0.0 -1.0
vn 0.05853089 0.9944769 -0.08711876
vn 0.37962043 0.73274535 -0.56477666
vn 0.6362364 0.66449356 -0.39198402
vn 0.107896484 0.9919372 -0.0664748
vn 0.0 0.99552816 0.09446437
vn 0.0 0.76790184 0.6405675
vn -0.37962043 0.73274535 0.56477666
vn -0.05853089 0.9944769 0.08711876
vn -0.05853089 0.9944769 -0.08711876
vn -0.37962043 0.73274535 -0.56477666
vn 0.0 0.76790184 -0.6405675
vn 0.0 0.99553615 -0.09438078
vn 0.05853089 0.9944769 0.08711876
vn 0.37962043 0.73274535 0.56477666
vn -0.10789589 0.99193174 -0.06655848
vn -0.6362364 0.66449356 -0.39198402
vn 0.10789589 0.99193174 0.06655848
vn 0.6362364 0.66449356 0.39198402
vn -0.14068282 0.9894045 -0.035876833
vn -0.76605916 0.6123341 -0.19544956
vn 0.14068282 0.9894045 0.035876833
vn 0.76605916 0.6123341 0.19544956
vn -0.15208802 0.98836696 0.0
vn -0.8043922 0.59409857 0.0
vn 0.15208802 0.98836696 0.0
vn 0.8043922 0.59409857 0.0
vn -0.14068282 0.9894045 0.035876833
vn -0.76605916 0.6123341 0.19544956
vn 0.14068282 0.9894045 -0.035876833
vn 0.76605916 0.6123341 -0.19544956
vn -0.107896484 0.9919372 0.0664748
vn -0.6362364 0.66449356 0.39198402
vn 0.9333787 0.2684556 -0.23819265
vn 0.9664582 0.25682414 0.0
vn -0.8108901 0.30474457 0.49958777
vn -0.9333787 0.2684556 0.23819265
vn 0.8108901 0.30474457 -0.49958777
vn -0.52026004 0.3612554 0.7738372
vn 0.52026004 0.3612554 -0.7738372
vn 0.0 0.39605302 0.9182277
vn -0.52026004 0.3612554 -0.7738372
vn 0.0 0.39605302 -0.9182277
vn 0.52026004 0.3612554 0.7738372
vn -0.8108901 0.30474457 -0.49958777
vn 0.8108901 0.30474457 0.49958777
vn -0.9333787 0.2684556 -0.23819265
vn 0.9333787 0.2684556 0.23819265
vn -0.9664582 0.25682414 0.0
vn -0.53250575 0.8354437 -0.13591033
vn -0.42327872 0.8676568 -0.26078117
vn 0.53250575 0.8354437 0.13591033
vn 0.42327872 0.8676568 0.26078117
vn -0.5678676 0.8231199 0.0
vn 0.5678676 0.8231199 0.0
vn -0.53250575 0.8354437 0.13591033
vn 0.53250575 0.8354437 -0.13591033
vn -0.42327872 0.8676568 0.26078117
vn 0.42327872 0.8676568 -0.26078117
vn -0.2386749 0.9039018 0.35495898
vn 0.2386749 0.9039018 -0.35495898
vn 0.0 0.9203164 0.39117485
vn -0.2386749 0.9039018 -0.35495898
vn 0.0 0.9203164 -0.39117485
vn 0.2386749 0.9039018 0.35495898
vn 0.0 -1.0 0.0
vn 0.0 -0.99982053 0.01894465
vn 0.7042171 -0.7098602 0.0132952
vn 0.6936954 -0.7174181 0.06401482
vn 0.0 -0.9960952 0.088286534
vn 0.0 -0.99323994 0.11607914
vn 0.0 -0.97216886 0.23428139
vn -0.6936954 -0.7174181 0.06401482
vn -0.7042171 -0.7098602 0.0132952
vn -0.71102107 0.70307803 -0.011415448
vn -0.7198466 0.6918923 -0.05573072
vn 0.7198466 0.6918923 -0.05573072
vn 0.71102107 0.70307803 -0.011415448
vn 0.9999959 -0.0028540455 0.0001848
vn 0.99993956 -0.010977577 0.0005545
vn -0.9999959 -0.0028540455 0.0001848
vn -0.99993956 -0.010977577 0.0005545
vn -0.99980164 -0.018518515 0.0073330454
vn -0.7317801 0.65674466 -0.18216538
vn 0.7317801 0.65674466 -0.18216538
vn 0.99980164 -0.018518515 0.0073330454
vn 0.0 -0.896872 0.44229016
vn 0.0 -0.96364665 0.2671801
vn -0.6875106 -0.7000956 0.19286129
vn 0.6875106 -0.7000956 0.19286129
vn 0.7013233 0.67015857 -0.2429674
vn 0.99997425 0.0065135886 -0.0030191042
vn -0.99997425 0.0065135886 -0.0030191042
vn -0.7013233 0.67015857 -0.2429674
vn 0.71685183 -0.65619147 0.23566149
vn 0.0 -0.9263867 0.37657362
vn -0.71685183 -0.65619147 0.23566149
vn 0.0 -0.98722166 0.15935327
vn -0.73606735 -0.66822785 0.10805721
vn 0.6825269 0.72091776 -0.120143846
vn 0.9997328 0.022837775 -0.0035742007
vn -0.9997328 0.022837775 -0.0035742007
vn -0.6825269 0.72091776 -0.120143846
vn 0.73606735 -0.66822785 0.10805721
vn 0.71704614 -0.69680464 -0.017556233
vn -0.6987756 0.71521544 0.013400359
vn 0.6987756 0.71521544 0.013400359
vn -0.71704614 -0.69680464 -0.017556233
vn 0.9999726 0.0073918127 0.0003697
vn -0.9999726 0.0073918127 0.0003697
vn 0.61677665 -0.6852289 0.38736033
vn -0.61677665 -0.6852289 0.38736033
vn 0.6320778 0.5359798 0.5596458
vn 0.8850469 -0.10037558 0.45455122
vn -0.8850469 -0.10037558 0.45455122
vn -0.6320778 0.5359798 0.5596458
vn -0.7045647 -0.7096397 0.0
vn -0.6179282 -0.62241745 0.48037615
vn -0.881353 0.20956233 0.4234389
vn -0.97287524 0.23133066 0.0
vn 0.0 0.8482309 0.5296265
vn 0.881353 0.20956233 0.4234389
vn 0.97287524 0.23133066 0.0
vn 0.6179282 -0.62241745 0.48037615
vn 0.7045647 -0.7096397 0.0
vn -0.7491819 0.6623643 0.0
vn 0.7491819 0.6623643 0.0
vn 0.769758 0.52135026 -0.36832938
vn -0.769758 0.52135026 -0.36832938
vn 0.80041033 0.122918874 -0.58671474
vn -0.80041033 0.122918874 -0.58671474
vn 0.78787076 -0.34833008 -0.507864
vn -0.78787076 -0.34833008 -0.507864
vn 0.75481737 -0.6271482 -0.19218701
vn -0.75481737 -0.6271482 -0.19218701
vn 0.75481737 -0.6271482 0.19218701
vn -0.75481737 -0.6271482 0.19218701
vn 0.78787076 -0.34833008 0.507864
vn -0.78787076 -0.34833008 0.507864
vn 0.80041033 0.122918874 0.58671474
vn -0.80041033 0.122918874 0.58671474
vn 0.769758 0.52135026 0.36832938
vn -0.769758 0.52135026 0.36832938
vn 0.15695609 0.9828518 0.096784204
vn 0.08540713 0.9882088 0.12707865
vn 0.14926921 0.96353346 0.22208528
vn 0.27138585 0.9478364 0.16720028
vn -0.08540713 0.9882088 -0.12707865
vn 0.0 0.9904535 -0.13784742
vn 0.0 0.9702464 -0.24211955
vn -0.14928088 0.9635082 -0.22218727
vn 0.0 -0.66103035 -0.75035924
vn 0.9805461 0.0 -0.19628893
vn 0.85568863 -0.48832053 -0.17128953
vn -0.15695609 0.9828518 -0.096784204
vn -0.27138585 0.9478364 -0.16720028
vn 0.20404454 0.9775768 -0.052053038
vn 0.220347 0.9754216 0.0
vn 0.3754143 0.9268571 0.0
vn 0.34900352 0.93288183 -0.08903892
vn 0.76271147 0.0 0.64673895
vn 0.6235672 -0.5758044 0.52878463
vn 0.15695609 0.9828518 -0.096784204
vn 0.27138585 0.9478364 -0.16720028
vn -0.220347 0.9754216 0.0
vn -0.20404454 0.9775768 -0.052053038
vn -0.34900352 0.93288183 -0.08903892
vn -0.3754143 0.9268571 0.0
vn -0.76271147 0.0 0.64673895
vn -0.6235672 -0.5758044 0.52878463
vn -0.15695609 0.9828518 0.096784204
vn -0.20404454 0.9775768 0.052053038
vn -0.34900352 0.93288183 0.08903892
vn -0.27138585 0.9478364 0.16720028
vn 0.20404454 0.9775768 0.052053038
vn 0.34900352 0.93288183 0.08903892
vn -0.9805461 0.0 -0.19628893
vn -0.85568863 -0.48832053 -0.17128953
vn 0.08540713 0.9882088 -0.12707865
vn 0.14926921 0.96353346 -0.22208528
vn -0.08540713 0.9882088 0.12707865
vn -0.14926642 0.96351534 0.22216572
vn 0.0 0.9904535 0.13784742
vn 0.0 0.9702464 0.24211955
vn -0.6327575 0.77435 0.0
vn -0.5955764 0.788792 0.15197326
vn 0.47811368 0.8274291 0.2945649
vn 0.5955764 0.788792 0.15197326
vn -0.5955764 0.788792 -0.15197326
vn 0.6327575 0.77435 0.0
vn -0.27278838 0.8723102 0.40578476
vn 0.0 0.8931939 0.44967175
vn 0.5955764 0.788792 -0.15197326
vn -0.47811368 0.8274291 -0.2945649
vn 0.47811368 0.8274291 -0.2945649
vn -0.47811368 0.8274291 0.2945649
vn 0.27278838 0.8723102 -0.40578476
vn -0.27278838 0.8723102 -0.40578476
vn 0.27278838 0.8723102 0.40578476
vn 0.0 0.8931939 -0.44967175
vn -0.41666678 0.6650551 -0.61975044
vn -0.68583953 0.5925203 -0.4225444
vn 0.41666678 0.6650551 0.61975044
vn 0.68583953 0.5925203 0.4225444
vn 0.41666678 0.6650551 -0.61975044
vn 0.0 0.7040713 -0.7101293
vn -0.8158918 0.5394152 0.20821127
vn -0.68583953 0.5925203 0.4225444
vn 0.0 0.7040713 0.7101293
vn -0.85338396 0.5212829 0.0
vn 0.8158918 0.5394152 0.20821127
vn -0.8158918 0.5394152 -0.20821127
vn 0.85338396 0.5212829 0.0
vn -0.41666678 0.6650551 0.61975044
vn 0.8158918 0.5394152 -0.20821127
vn 0.68583953 0.5925203 -0.4225444
vn 0.96708983 0.25443524 0.0
vn 0.9340462 0.26597986 -0.23835355
vn -0.8116391 0.3019814 -0.50004923
vn -0.9340462 0.26597986 -0.23835355
vn 0.8116391 0.3019814 -0.50004923
vn -0.8116391 0.3019814 0.50004923
vn -0.5209172 0.35813406 0.77484536
vn 0.5209172 0.35813406 -0.77484536
vn -0.5209172 0.35813406 -0.77484536
vn 0.5209172 0.35813406 0.77484536
vn 0.8116391 0.3019814 0.50004923
vn 0.0 0.3927231 -0.9196568
vn -0.9340462 0.26597986 0.23835355
vn 0.0 0.3927231 0.9196568
vn -0.96708983 0.25443524 0.0
vn 0.9340462 0.26597986 0.23835355
vn -0.9902669 0.13918118 0.0
vn -0.9585915 0.1458218 0.24461849
vn 0.8394526 0.16685 0.51718503
vn 0.9585915 0.1458218 0.24461849
vn -0.9585915 0.1458218 -0.24461849
vn 0.9902669 0.13918118 0.0
vn -0.5465698 0.20073754 0.81299806
vn 0.0 0.22241387 0.9749524
vn 0.9585915 0.1458218 -0.24461849
vn -0.8394526 0.16685 -0.51718503
vn 0.8394526 0.16685 -0.51718503
vn -0.8394526 0.16685 0.51718503
vn 0.5465698 0.20073754 -0.81299806
vn -0.5465698 0.20073754 -0.81299806
vn 0.5465698 0.20073754 0.81299806
vn 0.0 0.22241387 -0.9749524
f 70//67 71//67 72//68
f 70//67 72//68 73//68
f 74//69 75//69 76//70
f 74//69 76//70 77//70
f 78//71 79//71 71//67
f 78//71 71//67 70//67
f 80//72 81//72 75//69
f 80//72 75//69 74//69
f 82//73 83//73 79//71
f 82//73 79//71 78//71
f 84//74 85//74 81//72
f 84//74 81//72 80//72
f 86//75 87//75 83//73
f 86//75 83//73 82//73
f 88//76 89//76 85//74
f 88//76 85//74 84//74
f 90//77 91//77 87//75
f 90//77 87//75 86//75
f 92//78 93//78 89//76
f 92//78 89//76 88//76
f 94//79 95//79 96//80
f 94//79 96//80 97//80
f 97//80 96//80 91//77
f 97//80 91//77 90//77
f 98//81 99//81 93//78
f 98//81 93//78 92//78
f 100//82 101//82 95//79
f 100//82 95//79 94//79
f 73//68 72//68 99//81
f 73//68 99//81 98//81
f 77//70 76//70 101//82
f 77//70 101//82 100//82
f 72//83 102//83 103//84
f 72//83 103//84 99//84
f 76//85 104//85 105//86
f 76//85 105//86 101//86
f 71//87 106//87 102//83
f 71//87 102//83 72//83
f 75//88 107//88 104//85
f 75//88 104//85 76//85
f 79//89 108//89 106//87
f 79//89 106//87 71//87
f 81//90 109//90 107//88
f 81//90 107//88 75//88
f 83//91 110//91 108//89
f 83//91 108//89 79//89
f 85//92 111//92 109//90
f 85//92 109//90 81//90
f 87//93 112//93 110//91
f 87//93 110//91 83//91
f 89//94 113//94 111//92
f 89//94 111//92 85//92
f 91//95 114//95 112//93
f 91//95 112//93 87//93
f 93//96 115//96 113//94
f 93//96 113//94 89//94
f 95//97 116//97 117//98
f 95//97 117//98 96//98
f 96//98 117//98 114//95
f 96//98 114//95 91//95
f 99//84 103//84 115//96
f 99//84 115//96 93//96
f 101//86 105//86 116//97
f 101//86 116//97 95//97
f 114//99 118//99 119//100
f 114//99 119//100 112//100
f 115//101 120//101 121//102
f 115//101 121//102 113//102
f 116//103 122//103 123//104
f 116//103 123//104 117//104
f 117//104 123//104 118//99
f 117//104 118//99 114//99
f 103//105 124//105 120//101
f 103//105 120//101 115//101
f 105//106 125//106 122//103
f 105//106 122//103 116//103
f 102//107 126//107 124//105
f 102//107 124//105 103//105
f 104//108 127//108 125//106
f 104//108 125//106 105//106
f 106//109 128//109 126//107
f 106//109 126//107 102//107
f 107//110 129//110 127//108
f 107//110 127//108 104//108
f 108//111 130//111 128//109
f 108//111 128//109 106//109
f 109//112 131//112 129//110
f 109//112 129//110 107//110
f 110//113 132//113 130//111
f 110//113 130//111 108//111
f 111//114 133//114 131//112
f 111//114 131//112 109//112
f 112//100 119//100 132//113
f 112//100 132//113 110//113
f 113//102 121//102 133//114
f 113//102 133//114 111//114
f 131//115 134//116 135//117
f 131//115 135//117 129//118
f 132//119 136//120 137//121
f 132//119 137//121 130//122
f 133//123 138//124 134//116
f 133//123 134//116 131//115
f 119//125 139//126 136//120
f 119//125 136//120 132//119
f 121//127 140//128 138//124
f 121//127 138//124 133//123
f 118//129 141//130 139//126
f 118//129 139//126 119//125
f 120//131 142//132 140//128
f 120//131 140//128 121//127
f 122//133 143//134 144//135
f 122//133 144//135 123//136
f 123//136 144//135 141//130
f 123//136 141//130 118//129
f 124//137 145//138 142//132
f 124//137 142//132 120//131
f 125//139 146//140 143//134
f 125//139 143//134 122//133
f 126//141 147//142 145//138
f 126//141 145//138 124//137
f 127//143 148//144 146//140
f 127//143 146//140 125//139
f 128//145 149//146 147//142
f 128//145 147//142 126//141
f 129//118 135//117 148//144
f 129//118 148//144 127//143
f 130//122 137//121 149//146
f 130//122 149//146 128//145
f 147//142 150//147 151//148
f 147//142 151//148 145//138
f 148//144 152//149 153//150
f 148//144 153//150 146//140
f 149//146 154//151 150//147
f 149//146 150//147 147//142
f 135//117 155//152 152//149
f 135//117 152//149 148//144
f 137//121 156//153 154//151
f 137//121 154//151 149//146
f 134//116 157//154 155//152
f 134//116 155//152 135//117
f 136//120 158//155 156//153
f 136//120 156//153 137//121
f 138//124 159//156 157//154
f 138//124 157//154 134//116
f 139//126 160//157 158//155
f 139//126 158//155 136//120
f 140//128 161//158 159//156
f 140//128 159//156 138//124
f 141//130 162//159 160//157
f 141//130 160//157 139//126
f 142//132 163//160 161//158
f 142//132 161//158 140//128
f 143//134 164//161 165//162
f 143//134 165//162 144//135
f 144//135 165//162 162//159
f 144//135 162//159 141//130
f 145//138 151//148 163//160
f 145//138 163//160 142//132
f 146//140 153//150 164//161
f 146//140 164//161 143//134
f 162//163 166//164 167//165
f 162//163 167//165 160//166
f 163//167 168//168 169//169
f 163//167 169//169 161//170
f 164//171 170//172 171//173
f 164//171 171//173 165//174
f 165//174 171//173 166//164
f 165//174 166//164 162//163
f 151//175 172//176 168//168
f 151//175 168//168 163//167
f 153//177 173//178 170//172
f 153//177 170//172 164//171
f 150//179 174//180 172//176
f 150//179 172//176 151//175
f 152//181 175//182 173//178
f 152//181 173//178 153//177
f 154//183 176//184 174//180
f 154//183 174//180 150//179
f 155//185 177//186 175//182
f 155//185 175//182 152//181
f 156//187 178//188 176//184
f 156//187 176//184 154//183
f 157//189 179//190 177//186
f 157//189 177//186 155//185
f 158//191 180//192 178//188
f 158//191 178//188 156//187
f 159//193 181//194 179//190
f 159//193 179//190 157//189
f 160//166 167//165 180//192
f 160//166 180//192 158//191
f 161//170 169//169 181//194
f 161//170 181//194 159//193
f 180//192 182//195 183//196
f 180//192 183//196 178//188
f 181//194 184//197 185//198
f 181//194 185//198 179//190
f 167//165 186//199 182//195
f 167//165 182//195 180//192
f 169//169 187//200 184//197
f 169//169 184//197 181//194
f 166//164 188//201 186//199
f 166//164 186//199 167//165
f 168//168 189//202 187//200
f 168//168 187//200 169//169
f 170//172 190//203 191//204
f 170//172 191//204 171//173
f 171//173 191//204 188//201
f 171//173 188//201 166//164
f 172//176 192//205 189//202
f 172//176 189//202 168//168
f 173//178 193//206 190//203
f 173//178 190//203 170//172
f 174//180 194//207 192//205
f 174//180 192//205 172//176
f 175//182 195//208 193//206
f 175//182 193//206 173//178
f 176//184 196//209 194//207
f 176//184 194//207 174//180
f 177//186 197//210 195//208
f 177//186 195//208 175//182
f 178//188 183//196 196//209
f 178//188 196//209 176//184
f 179//190 185//198 197//210
f 179//190 197//210 177//186
f 195//208 198//211 199//212
f 195//208 199//212 193//206
f 196//209 200//213 201//214
f 196//209 201//214 194//207
f 197//210 202//215 198//211
f 197//210 198//211 195//208
f 183//196 203//216 200//213
f 183//196 200//213 196//209
f 185//198 204//217 202//215
f 185//198 202//215 197//210
f 182//195 205//218 203//216
f 182//195 203//216 183//196
f 184//197 206//219 204//217
f 184//197 204//217 185//198
f 186//199 207//220 205//218
f 186//199 205//218 182//195
f 187//200 208//221 206//219
f 187//200 206//219 184//197
f 188//201 209//222 207//220
f 188//201 207//220 186//199
f 189//202 210//223 208//221
f 189//202 208//221 187//200
f 190//203 211//224 212//225
f 190//203 212//225 191//204
f 191//204 212//225 209//222
f 191//204 209//222 188//201
f 192//205 213//226 210//223
f 192//205 210//223 189//202
f 193//206 199//212 211//224
f 193//206 211//224 190//203
f 194//207 201//214 213//226
f 194//207 213//226 192//205
f 209//222 212//225 211//224
f 209//222 211//224 199//212
f 209//222 199//212 198//211
f 209//222 198//211 202//215
f 209//222 202//215 204//217
f 209//222 204//217 206//219
f 209//222 206//219 208//221
f 209//222 208//221 210//223
f 209//222 210//223 213//226
f 209//222 213//226 201//214
f 209//222 201//214 200//213
f 209//222 200//213 203//216
f 209//222 203//216 205//218
f 209//222 205//218 207//220
f 214//160 215//160 216//160
f 214//160 216//160 217//160
f 217//1 216//1 218//1
f 217//1 218//1 219//1
f 220//227 221//227 215//227
f 220//227 215//227 214//227
f 217//152 219//152 220//152
f 217//152 220//152 214//152
f 218//153 216//153 215//153
f 218//153 215//153 221//153
f 222//152 223//152 224//152
f 222//152 224//152 225//152
f 226//228 227//229 228//230
f 226//228 228//230 229//231
f 230//232 231//233 223//233
f 230//232 223//233 222//232
f 225//228 224//231 232//234
f 225//228 232//234 233//235
f 234//236 235//237 236//238
f 234//236 236//238 237//239
f 238//240 237//239 236//238
f 238//240 236//238 239//241
f 230//153 226//153 229//153
f 230//153 229//153 231//153
f 240//242 241//243 235//237
f 240//242 235//237 234//236
f 241//243 242//244 243//245
f 241//243 243//245 235//237
f 235//237 243//245 244//246
f 235//237 244//246 236//238
f 223//152 245//152 246//152
f 223//152 246//152 224//152
f 239//241 236//238 244//246
f 239//241 244//246 247//247
f 231//233 248//248 245//248
f 231//233 245//248 223//233
f 224//231 246//249 249//250
f 224//231 249//250 232//234
f 231//153 229//153 250//153
f 231//153 250//153 248//153
f 229//231 228//230 251//251
f 229//231 251//251 250//249
f 248//153 250//153 252//153
f 247//247 244//246 253//252
f 247//247 253//252 254//253
f 242//244 255//254 256//255
f 242//244 256//255 243//245
f 245//152 257//152 246//152
f 250//249 251//251 258//256
f 250//249 258//256 252//257
f 243//245 256//255 253//252
f 243//245 253//252 244//246
f 248//248 252//257 257//257
f 248//248 257//257 245//248
f 246//249 257//257 259//258
f 246//249 259//258 249//250
f 257//257 260//259 261//260
f 257//257 261//260 259//258
f 254//253 253//252 262//261
f 254//253 262//261 263//262
f 255//254 264//263 265//264
f 255//254 265//264 256//255
f 252//257 258//256 266//265
f 252//257 266//265 267//259
f 256//255 265//264 262//261
f 256//255 262//261 253//252
f 267//259 266//265 268//266
f 265//264 269//267 270//268
f 265//264 270//268 262//261
f 260//259 271//269 261//260
f 263//262 262//261 270//268
f 263//262 270//268 272//270
f 264//263 273//271 269//267
f 264//263 269//267 265//264
f 274//272 275//273 271//269
f 274//272 271//269 268//266
f 272//270 270//268 276//274
f 272//270 276//274 277//275
f 273//271 278//276 279//277
f 273//271 279//277 269//267
f 260//259 257//257 252//257
f 260//259 252//257 267//259
f 269//267 279//277 276//274
f 269//267 276//274 270//268
f 260//259 267//259 268//266
f 260//259 268//266 271//269
f 280//278 281//279 282//280
f 280//278 282//280 283//281
f 284//1 285//282 286//283
f 284//1 286//283 287//284
f 281//279 288//285 289//283
f 281//279 289//283 290//282
f 281//279 290//282 282//280
f 287//284 286//283 291//285
f 287//284 291//285 292//286
f 293//286 288//285 281//279
f 293//286 281//279 280//278
f 292//286 291//285 294//279
f 292//286 294//279 295//278
f 294//279 291//285 286//283
f 294//279 286//283 285//282
f 294//279 285//282 296//280
f 297//284 289//283 288//285
f 297//284 288//285 293//286
f 295//278 294//279 296//280
f 295//278 296//280 298//281
f 283//281 282//280 290//282
f 283//281 290//282 299//1
f 298//281 296//280 285//282
f 298//281 285//282 284//1
f 299//1 290//282 289//283
f 299//1 289//283 297//284
f 277//275 278//276 275//273
f 277//275 275//273 274//272
f 276//274 279//277 278//276
f 276//274 278//276 277//275
f 271//269 275//273 278//276
f 271//269 278//276 273//271
f 268//266 272//270 277//275
f 268//266 277//275 274//272
f 261//260 271//269 273//271
f 261//260 273//271 264//263
f 266//265 263//262 272//270
f 266//265 272//270 268//266
f 259//258 261//260 264//263
f 259//258 264//263 255//254
f 258//256 254//253 263//262
f 258//256 263//262 266//265
f 249//250 259//258 255//254
f 249//250 255//254 242//244
f 251//251 247//247 254//253
f 251//251 254//253 258//256
f 228//230 239//241 247//247
f 228//230 247//247 251//251
f 232//234 249//250 242//244
f 232//234 242//244 241//243
f 233//235 232//234 241//243
f 233//235 241//243 240//242
f 227//229 238//240 239//241
f 227//229 239//241 228//230
f 300//287 301//288 302//289
f 300//287 302//289 303//290
f 303//290 302//289 304//291
f 303//290 304//291 305//292
f 305//292 304//291 306//293
f 305//292 306//293 307//294
f 307//294 306//293 308//295
f 307//294 308//295 309//296
f 309//296 308//295 310//297
f 309//296 310//297 311//298
f 311//298 310//297 312//299
f 311//298 312//299 313//300
f 313//300 312//299 314//301
f 313//300 314//301 315//302
f 306//293 304//291 302//289
f 306//293 302//289 301//288
f 306//293 301//288 316//303
f 306//293 316//303 314//301
f 306//293 314//301 312//299
f 306//293 312//299 310//297
f 306//293 310//297 308//295
f 315//302 314//301 316//303
f 315//302 316//303 317//304
f 317//304 316//303 301//288
f 317//304 301//288 300//287
f 315//302 317//304 300//287
f 315//302 300//287 303//290
f 315//302 303//290 305//292
f 315//302 305//292 307//294
f 315//302 307//294 309//296
f 315//302 309//296 311//298
f 315//302 311//298 313//300
f 318//305 319//306 320//307
f 318//305 320//307 321//308
f 322//309 323//310 324//311
f 322//309 324//311 325//312
f 326//313 327//162 328//314
f 326//313 328//314 329//315
f 330//316 322//309 325//312
f 330//316 325//312 331//317
f 332//318 333//319 334//320
f 332//318 334//320 335//321
f 329//315 328//314 336//322
f 329//315 336//322 337//323
f 338//324 332//318 335//321
f 338//324 335//321 339//325
f 340//326 341//327 342//328
f 340//326 342//328 343//329
f 337//323 336//322 344//330
f 337//323 344//330 345//331
f 346//332 347//333 348//334
f 346//332 348//334 349//335
f 333//319 350//336 351//337
f 333//319 351//337 334//320
f 345//331 344//330 352//338
f 345//331 352//338 353//339
f 354//340 338//324 339//325
f 354//340 339//325 355//341
f 356//342 346//332 349//335
f 356//342 349//335 357//343
f 353//339 352//338 327//162
f 353//339 327//162 326//313
f 345//331 353//339 326//313
f 345//331 326//313 329//315
f 345//331 329//315 337//323
f 323//310 354//340 355//341
f 323//310 355//341 324//311
f 358//344 356//342 357//343
f 358//344 357//343 359//345
f 319//306 358//344 359//345
f 319//306 359//345 320//307
f 341//327 330//316 331//317
f 341//327 331//317 342//328
f 350//336 318//305 321//308
f 350//336 321//308 351//337
f 347//333 340//326 343//329
f 347//333 343//329 348//334
f 348//334 343//329 360//346
f 348//334 360//346 361//347
f 351//337 321//308 362//348
f 351//337 362//348 363//349
f 343//329 342//328 364//350
f 343//329 364//350 360//346
f 334//320 351//337 363//349
f 334//320 363//349 365//351
f 359//345 357//343 366//352
f 359//345 366//352 367//353
f 335//321 334//320 365//351
f 335//321 365//351 368//354
f 342//328 331//317 369//355
f 342//328 369//355 364//350
f 339//325 335//321 368//354
f 339//325 368//354 370//356
f 357//343 349//335 371//357
f 357//343 371//357 366//352
f 355//341 339//325 370//356
f 355//341 370//356 372//358
f 331//317 325//312 373//359
f 331//317 373//359 369//355
f 321//308 320//307 374//360
f 321//308 374//360 362//348
f 324//311 355//341 372//358
f 324//311 372//358 375//361
f 349//335 348//334 361//347
f 349//335 361//347 371//357
f 320//307 359//345 367//353
f 320//307 367//353 374//360
f 325//312 324//311 375//361
f 325//312 375//361 373//359
f 369//355 373//359 376//362
f 369//355 376//362 377//363
f 362//348 374//360 378//364
f 362//348 378//364 379//365
f 375//361 372//358 380//366
f 375//361 380//366 381//367
f 371//357 361//347 382//368
f 371//357 382//368 383//369
f 374//360 367//353 384//370
f 374//360 384//370 378//364
f 373//359 375//361 381//367
f 373//359 381//367 376//362
f 361//347 360//346 385//371
f 361//347 385//371 382//368
f 363//349 362//348 379//365
f 363//349 379//365 386//372
f 360//346 364//350 387//373
f 360//346 387//373 385//371
f 365//351 363//349 386//372
f 365//351 386//372 388//374
f 367//353 366//352 389//375
f 367//353 389//375 384//370
f 368//354 365//351 388//374
f 368//354 388//374 390//376
f 364//350 369//355 377//363
f 364//350 377//363 387//373
f 370//356 368//354 390//376
f 370//356 390//376 391//377
f 366//352 371//357 383//369
f 366//352 383//369 389//375
f 372//358 370//356 391//377
f 372//358 391//377 380//366
f 390//376 388//374 392//378
f 390//376 392//378 393//379
f 387//373 377//363 394//380
f 387//373 394//380 395//381
f 391//377 390//376 393//379
f 391//377 393//379 396//382
f 389//375 383//369 397//383
f 389//375 397//383 398//384
f 380//366 391//377 396//382
f 380//366 396//382 399//385
f 377//363 376//362 400//386
f 377//363 400//386 394//380
f 379//365 378//364 401//387
f 379//365 401//387 402//388
f 381//367 380//366 399//385
f 381//367 399//385 403//389
f 383//369 382//368 404//390
f 383//369 404//390 397//383
f 378//364 384//370 405//391
f 378//364 405//391 401//387
f 376//362 381//367 403//389
f 376//362 403//389 400//386
f 382//368 385//371 406//392
f 382//368 406//392 404//390
f 386//372 379//365 402//388
f 386//372 402//388 407//393
f 385//371 387//373 395//381
f 385//371 395//381 406//392
f 388//374 386//372 407//393
f 388//374 407//393 392//378
f 384//370 389//375 398//384
f 384//370 398//384 405//391
f 404//390 406//392 408//394
f 404//390 408//394 409//395
f 407//393 402//388 410//396
f 407//393 410//396 411//397
f 406//392 395//381 412//398
f 406//392 412//398 408//394
f 392//378 407//393 411//397
f 392//378 411//397 413//399
f 405//391 398//384 414//400
f 405//391 414//400 415//401
f 393//379 392//378 413//399
f 393//379 413//399 416//402
f 395//381 394//380 417//403
f 395//381 417//403 412//398
f 396//382 393//379 416//402
f 396//382 416//402 418//404
f 398//384 397//383 419//405
f 398//384 419//405 414//400
f 399//385 396//382 418//404
f 399//385 418//404 420//406
f 394//380 400//386 421//407
f 394//380 421//407 417//403
f 402//388 401//387 422//408
f 402//388 422//408 410//396
f 403//389 399//385 420//406
f 403//389 420//406 423//409
f 397//383 404//390 409//395
f 397//383 409//395 419//405
f 401//387 405//391 415//401
f 401//387 415//401 422//408
f 400//386 403//389 423//409
f 400//386 423//409 421//407
f 417//1 421//1 424//1
f 417//1 424//1 425//1
f 410//1 422//1 426//1
f 410//1 426//1 427//1
f 423//1 420//1 428//1
f 423//1 428//1 429//1
f 419//1 409//1 430//1
f 419//1 430//1 431//1
f 422//1 415//1 432//1
f 422//1 432//1 426//1
f 421//1 423//1 429//1
f 421//1 429//1 424//1
f 409//1 408//1 433//1
f 409//1 433//1 430//1
f 411//1 410//1 427//1
f 411//1 427//1 434//1
f 408//1 412//1 435//1
f 408//1 435//1 433//1
f 413//1 411//1 434//1
f 413//1 434//1 436//1
f 415//1 414//1 437//1
f 415//1 437//1 432//1
f 416//1 413//1 436//1
f 416//1 436//1 438//1
f 412//1 417//1 425//1
f 412//1 425//1 435//1
f 418//1 416//1 438//1
f 418//1 438//1 439//1
f 414//1 419//1 431//1
f 414//1 431//1 437//1
f 420//1 418//1 439//1
f 420//1 439//1 428//1
f 438//155 436//153 440//153
f 438//155 440//153 441//155
f 435//149 425//150 442//150
f 435//149 442//150 443//149
f 439//157 438//155 441//155
f 439//157 441//155 444//157
f 437//158 431//156 445//156
f 437//158 445//156 446//158
f 428//159 439//157 444//157
f 428//159 444//157 447//159
f 425//150 424//161 448//161
f 425//150 448//161 442//150
f 427//147 426//148 449//148
f 427//147 449//148 450//147
f 429//162 428//159 447//159
f 429//162 447//159 451//162
f 431//156 430//154 452//154
f 431//156 452//154 445//156
f 426//148 432//160 453//160
f 426//148 453//160 449//148
f 424//161 429//162 451//162
f 424//161 451//162 448//161
f 430//154 433//152 454//152
f 430//154 454//152 452//154
f 434//151 427//147 450//147
f 434//151 450//147 455//151
f 433//152 435//149 443//149
f 433//152 443//149 454//152
f 436//153 434//151 455//151
f 436//153 455//151 440//153
f 432//160 437//158 446//158
f 432//160 446//158 453//160
f 455//227 450//227 456//227
f 455//227 456//227 457//227
f 454//227 443//227 458//227
f 454//227 458//227 57//227
f 440//227 455//227 457//227
f 440//227 457//227 25//227
f 453//227 446//227 459//227
f 453//227 459//227 41//227
f 441//227 440//227 25//227
f 441//227 25//227 460//227
f 443//227 442//227 461//227
f 443//227 461//227 458//227
f 444//227 441//227 460//227
f 444//227 460//227 462//227
f 446//227 445//227 463//227
f 446//227 463//227 459//227
f 447//227 444//227 462//227
f 447//227 462//227 464//227
f 442//227 448//227 465//227
f 442//227 465//227 461//227
f 450//227 449//227 466//227
f 450//227 466//227 456//227
f 451//227 447//227 464//227
f 451//227 464//227 467//227
f 445//227 452//227 468//227
f 445//227 468//227 463//227
f 449//227 453//227 41//227
f 449//227 41//227 466//227
f 448//227 451//227 467//227
f 448//227 467//227 465//227
f 452//227 454//227 57//227
f 452//227 57//227 468//227
g base_Circle_345_3_4
usemtl chrome
v 293.33795 876.72687 244.45323
v 301.454 876.72687 241.11224
v 293.33795 876.72687 215.97408
v 283.7644 876.72687 214.8008
v 260.6518 876.72687 236.11194
v 266.0748 876.72687 241.11224
v 283.7644 876.72687 245.62651
v 274.19086 876.72687 215.97408
v 258.7475 876.72687 230.21365
v 306.877 876.72687 236.11194
v 260.6518 876.72687 224.31537
v 308.7813 876.72687 230.21365
v 274.19086 876.72687 244.45323
v 306.877 876.72687 224.31537
v 266.0748 876.72687 219.31506
v 301.454 876.72687 219.31506
v 283.7644 882.5549 230.21365
vn -0.8310165 -0.21726461 -0.5120622
vn -0.5387078 -0.2602353 -0.8012937
vn -0.408921 -0.6803921 -0.60815305
vn -0.67564654 -0.6084617 -0.4162645
vn 0.0 -0.28738916 0.9578139
vn -0.5387078 -0.2602353 0.8012937
vn -0.408921 -0.6803921 0.60815305
vn 0.0 -0.7186619 0.6953596
vn 0.8310165 -0.21726461 -0.5120622
vn 0.9512354 -0.19033222 -0.24274436
vn 0.80575794 -0.5553935 -0.20565096
vn 0.67564654 -0.6084617 -0.4162645
vn 0.0 -0.28738916 -0.9578139
vn 0.0 -0.7186619 -0.6953596
vn 0.5387078 -0.2602353 0.8012937
vn 0.4088993 -0.68035597 0.608208
vn 0.98333955 -0.1817785 0.0
vn 0.8435161 -0.53710395 0.0
vn -0.9512354 -0.19033222 -0.24274436
vn -0.80575794 -0.5553935 -0.20565096
vn 0.9512354 -0.19033222 0.24274436
vn 0.80575794 -0.5553935 0.20565096
vn -0.98333955 -0.1817785 0.0
vn -0.8435161 -0.53710395 0.0
vn 0.5387078 -0.2602353 -0.8012937
vn 0.4088993 -0.68035597 -0.608208
vn -0.9512354 -0.19033222 0.24274436
vn -0.80575794 -0.5553935 0.20565096
vn 0.8310165 -0.21726461 0.5120622
vn 0.67564654 -0.6084617 0.4162645
vn -0.8310165 -0.21726461 0.5120622
vn -0.67564654 -0.6084617 0.4162645
f 456//410 466//411 469//412
f 456//410 469//412 470//413
f 467//414 464//415 471//416
f 467//414 471//416 472//417
f 463//418 468//419 473//420
f 463//418 473//420 474//421
f 466//411 41//422 475//423
f 466//411 475//423 469//412
f 465//424 467//414 472//417
f 465//424 472//417 476//425
f 468//419 57//426 477//427
f 468//419 477//427 473//420
f 457//428 456//410 470//413
f 457//428 470//413 478//429
f 57//426 458//430 479//431
f 57//426 479//431 477//427
f 25//432 457//428 478//429
f 25//432 478//429 480//433
f 41//422 459//434 481//435
f 41//422 481//435 475//423
f 460//436 25//432 480//433
f 460//436 480//433 482//437
f 458//430 461//438 483//439
f 458//430 483//439 479//431
f 462//440 460//436 482//437
f 462//440 482//437 484//441
f 459//434 463//418 474//421
f 459//434 474//421 481//435
f 464//415 462//440 484//441
f 464//415 484//441 471//416
f 461//438 465//424 476//425
f 461//438 476//425 483//439
f 479//431 483//439 485//227
f 484//441 482//437 485//227
f 481//435 474//421 485//227
f 471//416 484//441 485//227
f 483//439 476//425 485//227
f 470//413 469//412 485//227
f 472//417 471//416 485//227
f 474//421 473//420 485//227
f 469//412 475//423 485//227
f 476//425 472//417 485//227
f 473//420 477//427 485//227
f 478//429 470//413 485//227
f 477//427 479//431 485//227
f 480//433 478//429 485//227
f 475//423 481//435 485//227
f 482//437 480//433 485//227
